Tidy Text Mining With R – Oren Bochman’s Blog
…
unnest_tokens - Split a column into tokens, flattening the table into one-token-per-row.

tidy_corpus %>% 
    unnest_tokens(word, text)

# A tibble: 70 × 2
   doc_id word       
    <int> <chr>      
 1      1 drugs      
 2      1 hospitals  
 3      1 doctors    
 4      2 smog       
 5      2 pollution  
 6      2 micro      
 7      2 plastics   
 8      2 environment
 9      3 doctors    
10      3 hospitals  
# ℹ 60 more rows
…
library(janeaustenr)
library(dplyr)
library(stringr)

original_books <- austen_books() %>%
  group_by(book) %>%
  mutate(linenumber = row_number(),
         chapter = cumsum(str_detect(text, 
                                     regex("^chapter [\\divxlc]",
                                           ignore_case = TRUE)))) %>%
  ungroup()

original_books

# A tibble: 73,422 × 4
   text                    book                linenumber chapter
   <chr>                   <fct>                    <int>   <int>
 1 "SENSE AND SENSIBILITY" Sense & Sensibility          1       0
 2 ""                      Sense & Sensibility          2       0
 3 "by Jane Austen"        Sense & Sensibility          3       0
 4 ""                      Sense & Sensibility          4       0
 5 "(1811)"                Sense & Sensibility          5       0
 6 ""                      Sense & Sensibility          6       0
 7 ""                      Sense & Sensibility          7       0
 8 ""                      Sense & Sensibility          8       0
 9 ""                      Sense & Sensibility          9       0
10 "CHAPTER 1"             Sense & Sensibility         10       1
# ℹ 73,412 more rows

library(tidytext)
tidy_books <- original_books %>%
  unnest_tokens(word, text)

tidy_books

# A tibble: 725,055 × 4
   book                linenumber chapter word       
   <fct>                    <int>   <int> <chr>      
 1 Sense & Sensibility          1       0 sense      
 2 Sense & Sensibility          1       0 and        
 3 Sense & Sensibility          1       0 sensibility
 4 Sense & Sensibility          3       0 by         
 5 Sense & Sensibility          3       0 jane       
 6 Sense & Sensibility          3       0 austen     
 7 Sense & Sensibility          5       0 1811       
 8 Sense & Sensibility         10       1 chapter    
 9 Sense & Sensibility         10       1 1          
10 Sense & Sensibility         13       1 the        
# ℹ 725,045 more rows

data(stop_words)

tidy_books <- tidy_books %>%
  anti_join(stop_words)

Joining with `by = join_by(word)`

tidy_books

# A tibble: 217,609 × 4
   book                linenumber chapter word       
   <fct>                    <int>   <int> <chr>      
 1 Sense & Sensibility          1       0 sense      
 2 Sense & Sensibility          1       0 sensibility
 3 Sense & Sensibility          3       0 jane       
 4 Sense & Sensibility          3       0 austen     
 5 Sense & Sensibility          5       0 1811       
 6 Sense & Sensibility         10       1 chapter    
 7 Sense & Sensibility         10       1 1          
 8 Sense & Sensibility         13       1 family     
 9 Sense & Sensibility         13       1 dashwood   
10 Sense & Sensibility         13       1 settled    
# ℹ 217,599 more rows

this removes stop words

tidy_books %>%
  count(word, sort = TRUE) 

# A tibble: 13,914 × 2
   word       n
   <chr>  <int>
 1 miss    1855
 2 time    1337
 3 fanny    862
 4 dear     822
 5 lady     817
 6 sir      806
 7 day      797
 8 emma     787
 9 sister   727
10 house    699
# ℹ 13,904 more rows
…
frequency <- bind_rows(mutate(tidy_bronte, author = "Brontë Sisters"),
                       mutate(tidy_hgwells, author = "H.G. Wells"), 
                       mutate(tidy_books, author = "Jane Austen")) %>% 
  mutate(word = str_extract(word, "[a-z']+")) %>%
  count(author, word) %>%
  group_by(author) %>%
  mutate(proportion = n / sum(n)) %>% 
  select(-n) %>% 
  pivot_wider(names_from = author, values_from = proportion) %>%
  pivot_longer(`Brontë Sisters`:`H.G. Wells`,
               names_to = "author", values_to = "proportion")

frequency

# A tibble: 76,964 × 4
   word      `Jane Austen` author          proportion
   <chr>             <dbl> <chr>                <dbl>
 1 a            0.00000919 Brontë Sisters  0.0000665 
 2 a            0.00000919 H.G. Wells      0.000408  
 3 aback       NA          Brontë Sisters  0.00000391
 4 aback       NA          H.G. Wells      0.00000311
 5 abaht       NA          Brontë Sisters  0.00000391
 6 abaht       NA          H.G. Wells     NA         
 7 abandon     NA          Brontë Sisters  0.0000313 
 8 abandon     NA          H.G. Wells      0.0000404 
 9 abandoned    0.00000460 Brontë Sisters  0.0000899 
10 abandoned    0.00000460 H.G. Wells      0.000156  
# ℹ 76,954 more rows
…
